<svg xmlns="http://www.w3.org/2000/svg" xmlns:xlink="http://www.w3.org/1999/xlink" preserveAspectRatio="xMidYMid" width="23" height="23" viewBox="0 0 23 23">
  <defs>
    <style>

      .cls-2 {
        fill: #ff33a4;
      }
    </style>
  </defs>
  <path d="M11.500,23.000 C5.149,23.000 -0.000,17.851 -0.000,11.500 C-0.000,5.149 5.149,0.000 11.500,0.000 C17.851,0.000 23.000,5.149 23.000,11.500 C23.000,17.851 17.851,23.000 11.500,23.000 ZM11.500,2.156 C6.340,2.156 2.156,6.340 2.156,11.500 C2.156,16.661 6.340,20.844 11.500,20.844 C16.660,20.844 20.844,16.661 20.844,11.500 C20.844,6.340 16.660,2.156 11.500,2.156 ZM16.172,12.578 C16.172,12.578 14.016,12.578 14.016,12.578 C14.016,12.578 12.578,12.578 12.578,12.578 C12.578,12.578 11.500,12.578 11.500,12.578 C11.500,12.578 11.500,12.578 11.500,12.578 C10.905,12.578 10.422,12.095 10.422,11.500 C10.422,11.500 10.422,5.031 10.422,5.031 C10.422,4.436 10.905,3.953 11.500,3.953 C12.095,3.953 12.578,4.436 12.578,5.031 C12.578,5.031 12.578,10.422 12.578,10.422 C12.578,10.422 14.016,10.422 14.016,10.422 C14.016,10.422 16.172,10.422 16.172,10.422 C16.767,10.422 17.250,10.904 17.250,11.500 C17.250,12.096 16.767,12.578 16.172,12.578 Z" id="path-1" class="cls-2" fill-rule="evenodd"/>
</svg>
