<svg xmlns="http://www.w3.org/2000/svg" xmlns:xlink="http://www.w3.org/1999/xlink" preserveAspectRatio="xMidYMid" width="13" height="13" viewBox="0 0 13 13">
  <defs>
    <style>

      .cls-2 {
        fill: #ff33a4;
      }
    </style>
  </defs>
  <path d="M11.000,6.000 C11.000,6.000 4.000,6.000 4.000,6.000 C4.000,6.000 4.000,4.000 4.000,4.000 C4.000,2.695 4.382,0.937 7.000,1.000 C8.305,1.031 9.000,1.695 9.000,3.000 C9.000,3.000 9.000,4.000 9.000,4.000 C9.000,4.326 9.128,4.727 9.454,4.727 C9.781,4.727 10.045,4.462 10.045,4.136 C10.045,4.136 10.000,3.000 10.000,3.000 C10.000,1.042 8.458,-0.000 6.500,-0.000 C4.542,-0.000 2.954,1.587 2.954,3.545 C2.954,3.545 3.000,6.000 3.000,6.000 C3.000,6.000 2.000,6.000 2.000,6.000 C1.021,6.000 -0.000,6.702 -0.000,7.682 C-0.000,7.682 -0.000,11.227 -0.000,11.227 C-0.000,12.207 0.793,13.000 1.773,13.000 C1.773,13.000 11.227,13.000 11.227,13.000 C12.207,13.000 13.000,12.207 13.000,11.227 C13.000,11.227 13.000,7.682 13.000,7.682 C13.000,6.702 11.979,6.000 11.000,6.000 ZM12.000,11.000 C12.000,11.326 11.326,12.000 11.000,12.000 C11.000,12.000 2.000,12.000 2.000,12.000 C1.673,12.000 1.000,11.326 1.000,11.000 C1.000,11.000 1.000,8.000 1.000,8.000 C1.000,7.673 1.673,7.000 2.000,7.000 C2.000,7.000 11.000,7.000 11.000,7.000 C11.326,7.000 12.000,7.673 12.000,8.000 C12.000,8.000 12.000,11.000 12.000,11.000 Z" id="path-1" class="cls-2" fill-rule="evenodd"/>
</svg>
